Smith Lab common stats using R
…
2.1.3.1 Load packages

First, we will load the packages required to complete the entire procedure.

library(mgcv) # For fitting GAMs
library(gratia) # For cleaner-looking assumption plots

2.1.3.2 Prepare your data

Your data for GAMs should be laid out in the “each row is an observation and each column is a variable” format. For instance, suppose you wanted to get information about the inhabitants of a galaxy far far away such as their name, birth year (before the battle of Yavin), weight, height, etc. An intuitive way to lay out those data would be to make every row represent a specific inhabitant and every column a variable about that inhabitant, so that in the end you would have something this:

# This data set is part of the dplyr package
starwars # Displays data about all Star Wars characters

# A tibble: 87 × 14
   name        height  mass hair_…¹ skin_…² eye_c…³ birth…⁴ sex   gender homew…⁵
   <chr>        <int> <dbl> <chr>   <chr>   <chr>     <dbl> <chr> <chr>  <chr>  
 1 Luke Skywa…    172    77 blond   fair    blue       19   male  mascu… Tatooi…
 2 C-3PO          167    75 <NA>    gold    yellow    112   none  mascu… Tatooi…
 3 R2-D2           96    32 <NA>    white,… red        33   none  mascu… Naboo  
 4 Darth Vader    202   136 none    white   yellow     41.9 male  mascu… Tatooi…
 5 Leia Organa    150    49 brown   light   brown      19   fema… femin… Aldera…
 6 Owen Lars      178   120 brown,… light   blue       52   male  mascu… Tatooi…
 7 Beru White…    165    75 brown   light   blue       47   fema… femin… Tatooi…
 8 R5-D4           97    32 <NA>    white,… red        NA   none  mascu… Tatooi…
 9 Biggs Dark…    183    84 black   light   brown      24   male  mascu… Tatooi…
10 Obi-Wan Ke…    182    77 auburn… fair    blue-g…    57   male  mascu… Stewjon
# … with 77 more rows, 4 more variables: species <chr>, films <list>,
#   vehicles <list>, starships <list>, and abbreviated variable names
#   ¹​hair_color, ²​skin_color, ³​eye_color, ⁴​birth_year, ⁵​homeworld
…
We will be using the following Staphylinidae elevation and heat tolerance data from Costa Rica to learn how to run GAMs in R.

#______________________________________________________________________________
# Importing the data frame
staph_ctmax_elevation_data <- read.csv(
  here("data",
       "raw",
       "OTU_named_190220.csv")) # Imports the data from working directory

#______________________________________________________________________________
# Displaying the top 10 rows of the data frame
staph_ctmax_elevation_data %>%
  as_tibble() # Just makes this output look nicer

# A tibble: 57 × 3
   bin    elevation ctmax
   <chr>      <int> <dbl>
 1 OTU-01      1300  37.5
 2 OTU-01      1300  36.5
 3 OTU-01      1300  37  
 4 OTU-01      1300  36.5
 5 OTU-01      1300  36.5
 6 OTU-01      1300  34  
 7 OTU-01      1200  36  
 8 OTU-02      1200  36  
 9 OTU-03      1200  36  
10 OTU-04      1300  39.5
# … with 47 more rows
…
Here we will import an example datasheet that might look like yours.

#______________________________________________________________________________
# Importing the data frame
community_df <- read_excel(
  here("data",
       "raw",
       "community_df.xlsx")) # Imports the data from working directory

#______________________________________________________________________________
# Displaying the data frame
community_df # Prints the top 10 rows of the data frame if table is massive

# A tibble: 331 × 16
   plot_nu…¹ species abund…²   sla leaf_…³ leaf_…⁴ leaf_…⁵   srl root_…⁶ root_…⁷
       <dbl> <chr>     <dbl> <dbl>   <dbl>   <dbl>   <dbl> <dbl>   <dbl>   <dbl>
 1         9 Viola_…      10  839.   1.05    0.2   0.00596 133.    0.306   0.175
 2         7 Planta…      20  548.   0.256   0.223 0.00817  54.9   0.767   0.173
 3        11 Potent…      40  471.   4.28    0.343 0.00619 192.    0.257   0.165
 4         3 Andros…      20  450.   0.255   0.36  0.00618 201.    0.442   0.122
 5        14 Campan…      10  402.   0.998   0.247 0.0101  197.    0.212   0.176
 6         7 Poa_sa…      50  385.   0.347   0.203 0.0128  240.    0.183   0.170
 7        17 Orthoc…      60  371.   0.653   0.204 0.0132   84.4   0.333   0.206
 8        10 Astrag…      10  359.   2.03    0.237 0.0118   21.0   0.546   0.335
 9         9 Draba_…      10  348.   0.600   0.307 0.00938  58.0   0.45    0.227
10         9 Descur…      10  347.   0.886   0.29  0.00993 169.    0.475   0.126
# … with 321 more rows, 6 more variables: habitat <chr>, site <chr>,
#   slope <dbl>, aspect <dbl>, slope_position <dbl>, rel_moisture <dbl>, and
#   abbreviated variable names ¹​plot_number, ²​abundance, ³​leaf_area,
#   ⁴​leaf_thickness, ⁵​leaf_tissue_dens, ⁶​root_tissue_dens, ⁷​root_diam
…
3.3.2 How to do it in R

3.3.2.1 Load packages

First, let’s load the packages we will need to complete the entire procedure.

library(betapart)

3.3.2.2 Prepare your data

We will be using the same data we used in Section 3.1.2.2, but here we will create a presence/absence matrix. I will print the data here so you see what it looks like.

community_df

# A tibble: 331 × 16
   plot_nu…¹ species abund…²   sla leaf_…³ leaf_…⁴ leaf_…⁵   srl root_…⁶ root_…⁷
       <dbl> <chr>     <dbl> <dbl>   <dbl>   <dbl>   <dbl> <dbl>   <dbl>   <dbl>
 1         9 Viola_…      10  839.   1.05    0.2   0.00596 133.    0.306   0.175
 2         7 Planta…      20  548.   0.256   0.223 0.00817  54.9   0.767   0.173
 3        11 Potent…      40  471.   4.28    0.343 0.00619 192.    0.257   0.165
 4         3 Andros…      20  450.   0.255   0.36  0.00618 201.    0.442   0.122
 5        14 Campan…      10  402.   0.998   0.247 0.0101  197.    0.212   0.176
 6         7 Poa_sa…      50  385.   0.347   0.203 0.0128  240.    0.183   0.170
 7        17 Orthoc…      60  371.   0.653   0.204 0.0132   84.4   0.333   0.206
 8        10 Astrag…      10  359.   2.03    0.237 0.0118   21.0   0.546   0.335
 9         9 Draba_…      10  348.   0.600   0.307 0.00938  58.0   0.45    0.227
10         9 Descur…      10  347.   0.886   0.29  0.00993 169.    0.475   0.126
# … with 321 more rows, 6 more variables: habitat <chr>, site <chr>,
#   slope <dbl>, aspect <dbl>, slope_position <dbl>, rel_moisture <dbl>, and
#   abbreviated variable names ¹​plot_number, ²​abundance, ³​leaf_area,
#   ⁴​leaf_thickness, ⁵​leaf_tissue_dens, ⁶​root_tissue_dens, ⁷​root_diam
…
#______________________________________________________________________________
# Displaying things

#________________________________
# Display the top 10 rows of the data frame
staph_ctmax_elevation_data %>%
  as_tibble() # Just to make this output look nicer

# A tibble: 57 × 3
   bin    elevation ctmax
   <chr>      <int> <dbl>
 1 OTU-01      1300  37.5
 2 OTU-01      1300  36.5
 3 OTU-01      1300  37  
 4 OTU-01      1300  36.5
 5 OTU-01      1300  36.5
 6 OTU-01      1300  34  
 7 OTU-01      1200  36  
 8 OTU-02      1200  36  
 9 OTU-03      1200  36  
10 OTU-04      1300  39.5
# … with 47 more rows
…
#______________________________________________________________________________
# Making the data frame
average_trait_df <- staph_ctmax_elevation_data %>%
  group_by(bin) %>%
  mutate(mean_ctmax = mean(ctmax),
         mean_elevation = mean(elevation)) %>%
  distinct(mean_ctmax,
           mean_elevation)

#______________________________________________________________________________
# Displaying the data frame
average_trait_df

# A tibble: 28 × 3
# Groups:   bin [28]
   bin    mean_ctmax mean_elevation
   <chr>       <dbl>          <dbl>
 1 OTU-01       36.3          1286.
 2 OTU-02       36            1200 
 3 OTU-03       36            1200 
 4 OTU-04       39            1167.
 5 OTU-05       36            1200 
 6 OTU-06       37.7           783.
 7 OTU-07       39.5          1000 
 8 OTU-08       32.5           700 
 9 OTU-09       40.5           700 
10 OTU-10       39.5           700 
# … with 18 more rows
…
We can see that the taxa names in the “comm” object are now in the same order as the “tip.label” column in the “phy” object.

Now we need to turn our phylogeny into a distance matrix of its own. We can do this with the cophenetic() function from the stats package from base R.

#______________________________________________________________________________
# Turn matched phylogeny to distance matrix
phydist <- cophenetic(phy_match$phy)

#______________________________________________________________________________
# Display the tree as a matrix
phydist %>%
  as_tibble()

# A tibble: 28 × 28
   `OTU-08` `OTU-10` `OTU-22` `OTU-02` `OTU-19` `OTU-23` OTU-0…¹ OTU-2…² OTU-0…³
      <dbl>    <dbl>    <dbl>    <dbl>    <dbl>    <dbl>   <dbl>   <dbl>   <dbl>
 1    0        0.506    0.346    0.400    0.350    0.414   0.499   0.487   0.545
 2    0.506    0        0.775    0.829    0.779    0.843   0.928   0.916   0.974
 3    0.346    0.775    0        0.415    0.365    0.428   0.514   0.501   0.559
 4    0.400    0.829    0.415    0        0.272    0.442   0.528   0.515   0.573
 5    0.350    0.779    0.365    0.272    0        0.392   0.478   0.465   0.523
 6    0.414    0.843    0.428    0.442    0.392    0       0.492   0.480   0.538
 7    0.499    0.928    0.514    0.528    0.478    0.492   0       0.367   0.434
 8    0.487    0.916    0.501    0.515    0.465    0.480   0.367   0       0.421
 9    0.545    0.974    0.559    0.573    0.523    0.538   0.434   0.421   0    
10    0.527    0.956    0.541    0.555    0.505    0.520   0.416   0.403   0.183
# … with 18 more rows, 19 more variables: `OTU-12` <dbl>, `OTU-13` <dbl>,
#   `OTU-06` <dbl>, `OTU-28` <dbl>, `OTU-24` <dbl>, `OTU-11` <dbl>,
#   `OTU-17` <dbl>, `OTU-14` <dbl>, `OTU-18` <dbl>, `OTU-05` <dbl>,
#   `OTU-15` <dbl>, `OTU-03` <dbl>, `OTU-07` <dbl>, `OTU-26` <dbl>,
#   `OTU-16` <dbl>, `OTU-27` <dbl>, `OTU-09` <dbl>, `OTU-21` <dbl>,
#   `OTU-25` <dbl>, and abbreviated variable names ¹​`OTU-01`, ²​`OTU-20`,
#   ³​`OTU-04`
…
